{
    "items": [
      {
        "key": "THIS_IS_MY_FIRST_KEY",
        "value": "Esta es una prueba en español"
      },
      {
        "key": "THIS_IS_MY_SECOND_KEY",
        "value": "Esta es una segunda prueba en español"
      }
    ]
  }
