{
    "items": [
      {
        "key": "THIS_IS_MY_FIRST_KEY",
        "value": "Dies ist ein Test auf Deutsch"
      },
      {
        "key": "THIS_IS_MY_SECOND_KEY",
        "value": "Dies ist ein zweiter Test auf Deutsch"
      }
    ]
  }
